"INSERT INTO funds (code,fund_name,egg_count_100,egg_day_100,yesterday_percentage,today_percentage, max_draw_down_1y,data) VALUES ('007677','','456','86','0.05',NULL,'0.0055','{"data":{"items":[{"date":"2024-06-13","nav":"1.1583","percentage":"0.01","value":"1.1583"},{"date":"2024-06-12","nav":"1.1582","percentage":"0.01","value":"1.1582"},{"date":"2024-06-11","nav":"1.1581","percentage":"0.03","value":"1.1581"},{"date":"2024-06-07","nav":"1.1578","percentage":"0.02","value":"1.1578"},{"date":"2024-06-06","nav":"1.1576","percentage":"0.02","value":"1.1576"},{"date":"2024-06-05","nav":"1.1574","percentage":"0.03","value":"1.1574"},{"date":"2024-06-04","nav":"1.1570","percentage":"0.02","value":"1.1570"},{"date":"2024-06-03","nav":"1.1568","percentage":"0.03","value":"1.1568"},{"date":"2024-05-31","nav":"1.1564","percentage":"-0.01","value":"1.1564"},{"date":"2024-05-30","nav":"1.1565","percentage":"0.01","value":"1.1565"},{"date":"2024-05-29","nav":"1.1564","percentage":"0.02","value":"1.1564"},{"date":"2024-05-28","nav":"1.1562","percentage":"0.02","value":"1.1562"},{"date":"2024-05-27","nav":"1.1560","percentage":"0.02","value":"1.1560"},{"date":"2024-05-24","nav":"1.1558","percentage":"0.01","value":"1.1558"},{"date":"2024-05-23","nav":"1.1557","percentage":"0.02","value":"1.1557"},{"date":"2024-05-22","nav":"1.1555","percentage":"0.02","value":"1.1555"},{"date":"2024-05-21","nav":"1.1553","percentage":"-0.01","value":"1.1553"},{"date":"2024-05-20","nav":"1.1554","percentage":"0.03","value":"1.1554"},{"date":"2024-05-17","nav":"1.1550","percentage":"0.0","value":"1.1550"},{"date":"2024-05-16","nav":"1.1550","percentage":"0.0","value":"1.1550"},{"date":"2024-05-15","nav":"1.1550","percentage":"0.02","value":"1.1550"},{"date":"2024-05-14","nav":"1.1548","percentage":"0.03","value":"1.1548"},{"date":"2024-05-13","nav":"1.1545","percentage":"0.04","value":"1.1545"},{"date":"2024-05-10","nav":"1.1540","percentage":"0.0","value":"1.1540"},{"date":"2024-05-09","nav":"1.1540","percentage":"-0.02","value":"1.1540"},{"date":"2024-05-08","nav":"1.1542","percentage":"0.03","value":"1.1542"},{"date":"2024-05-07","nav":"1.1539","percentage":"0.06","value":"1.1539"},{"date":"2024-05-06","nav":"1.1532","percentage":"0.06","value":"1.1532"},{"date":"2024-04-30","nav":"1.1525","percentage":"0.06","value":"1.1525"},{"date":"2024-04-29","nav":"1.1518","percentage":"-0.09","value":"1.1518"},{"date":"2024-04-26","nav":"1.1528","percentage":"-0.05","value":"1.1528"},{"date":"2024-04-25","nav":"1.1534","percentage":"-0.02","value":"1.1534"},{"date":"2024-04-24","nav":"1.1536","percentage":"-0.07","value":"1.1536"},{"date":"2024-04-23","nav":"1.1544","percentage":"0.04","value":"1.1544"},{"date":"2024-04-22","nav":"1.1539","percentage":"0.06","value":"1.1539"},{"date":"2024-04-19","nav":"1.1532","percentage":"0.03","value":"1.1532"},{"date":"2024-04-18","nav":"1.1528","percentage":"0.04","value":"1.1528"},{"date":"2024-04-17","nav":"1.1523","percentage":"0.03","value":"1.1523"},{"date":"2024-04-16","nav":"1.1520","percentage":"0.0","value":"1.1520"},{"date":"2024-04-15","nav":"1.1520","percentage":"0.03","value":"1.1520"},{"date":"2024-04-12","nav":"1.1516","percentage":"0.06","value":"1.1516"},{"date":"2024-04-11","nav":"1.1509","percentage":"0.04","value":"1.1509"},{"date":"2024-04-10","nav":"1.1504","percentage":"0.03","value":"1.1504"},{"date":"2024-04-09","nav":"1.1501","percentage":"0.04","value":"1.1501"},{"date":"2024-04-08","nav":"1.1496","percentage":"0.05","value":"1.1496"},{"date":"2024-04-03","nav":"1.1490","percentage":"0.05","value":"1.1490"},{"date":"2024-04-02","nav":"1.1484","percentage":"0.03","value":"1.1484"},{"date":"2024-04-01","nav":"1.1481","percentage":"0.02","value":"1.1481"},{"date":"2024-03-29","nav":"1.1479","percentage":"0.03","value":"1.1479"},{"date":"2024-03-28","nav":"1.1476","percentage":"0.02","value":"1.1476"},{"date":"2024-03-27","nav":"1.1474","percentage":"0.01","value":"1.1474"},{"date":"2024-03-26","nav":"1.1473","percentage":"0.0","value":"1.1473"},{"date":"2024-03-25","nav":"1.1473","percentage":"0.01","value":"1.1473"},{"date":"2024-03-22","nav":"1.1472","percentage":"0.0","value":"1.1472"},{"date":"2024-03-21","nav":"1.1472","percentage":"0.02","value":"1.1472"},{"date":"2024-03-20","nav":"1.1470","percentage":"0.0","value":"1.1470"},{"date":"2024-03-19","nav":"1.1470","percentage":"0.04","value":"1.1470"},{"date":"2024-03-18","nav":"1.1465","percentage":"0.11","value":"1.1465"},{"date":"2024-03-15","nav":"1.1452","percentage":"0.03","value":"1.1452"},{"date":"2024-03-14","nav":"1.1448","percentage":"0.06","value":"1.1448"},{"date":"2024-03-13","nav":"1.1441","percentage":"0.05","value":"1.1441"},{"date":"2024-03-12","nav":"1.1435","percentage":"1.41","value":"1.1435"},{"date":"2024-03-11","nav":"1.1276","percentage":"0.03","value":"1.1276"},{"date":"2024-03-08","nav":"1.1273","percentage":"0.02","value":"1.1273"},{"date":"2024-03-07","nav":"1.1271","percentage":"0.03","value":"1.1271"},{"date":"2024-03-06","nav":"1.1268","percentage":"0.03","value":"1.1268"},{"date":"2024-03-05","nav":"1.1265","percentage":"0.03","value":"1.1265"},{"date":"2024-03-04","nav":"1.1262","percentage":"0.03","value":"1.1262"},{"date":"2024-03-01","nav":"1.1259","percentage":"0.02","value":"1.1259"},{"date":"2024-02-29","nav":"1.1257","percentage":"0.04","value":"1.1257"},{"date":"2024-02-28","nav":"1.1253","percentage":"0.03","value":"1.1253"},{"date":"2024-02-27","nav":"1.1250","percentage":"0.04","value":"1.1250"},{"date":"2024-02-26","nav":"1.1245","percentage":"0.06","value":"1.1245"},{"date":"2024-02-23","nav":"1.1238","percentage":"0.06","value":"1.1238"},{"date":"2024-02-22","nav":"1.1231","percentage":"0.07","value":"1.1231"},{"date":"2024-02-21","nav":"1.1223","percentage":"0.04","value":"1.1223"},{"date":"2024-02-20","nav":"1.1218","percentage":"0.04","value":"1.1218"},{"date":"2024-02-19","nav":"1.1213","percentage":"0.1","value":"1.1213"},{"date":"2024-02-08","nav":"1.1202","percentage":"0.04","value":"1.1202"},{"date":"2024-02-07","nav":"1.1198","percentage":"0.04","value":"1.1198"},{"date":"2024-02-06","nav":"1.1194","percentage":"0.03","value":"1.1194"},{"date":"2024-02-05","nav":"1.1191","percentage":"0.08","value":"1.1191"},{"date":"2024-02-02","nav":"1.1182","percentage":"0.07","value":"1.1182"},{"date":"2024-02-01","nav":"1.1174","percentage":"0.12","value":"1.1174"},{"date":"2024-01-31","nav":"1.1161","percentage":"0.08","value":"1.1161"},{"date":"2024-01-30","nav":"1.1152","percentage":"0.05","value":"1.1152"},{"date":"2024-01-29","nav":"1.1146","percentage":"0.06","value":"1.1146"},{"date":"2024-01-26","nav":"1.1139","percentage":"0.03","value":"1.1139"},{"date":"2024-01-25","nav":"1.1136","percentage":"0.04","value":"1.1136"},{"date":"2024-01-24","nav":"1.1131","percentage":"0.04","value":"1.1131"},{"date":"2024-01-23","nav":"1.1127","percentage":"0.03","value":"1.1127"},{"date":"2024-01-22","nav":"1.1124","percentage":"0.15","value":"1.1124"},{"date":"2024-01-19","nav":"1.1107","percentage":"0.04","value":"1.1107"},{"date":"2024-01-18","nav":"1.1103","percentage":"0.04","value":"1.1103"},{"date":"2024-01-17","nav":"1.1099","percentage":"0.04","value":"1.1099"},{"date":"2024-01-16","nav":"1.1095","percentage":"0.03","value":"1.1095"},{"date":"2024-01-15","nav":"1.1092","percentage":"0.05","value":"1.1092"},{"date":"2024-01-12","nav":"1.1086","percentage":"0.04","value":"1.1086"},{"date":"2024-01-11","nav":"1.1082","percentage":"0.05","value":"1.1082"},{"date":"2024-01-10","nav":"1.1077","percentage":"0.05","value":"1.1077"}],"current_page":1,"size":100,"total_items":1171,"total_pages":12},"result_code":0}')
    ON DUPLICATE KEY UPDATE  egg_count_100 = VALUES(egg_count_100);"